…
``` r
cv_df %>% pull(train) %>% .[[1]] %>% as_tibble
```

    ## # A tibble: 79 × 3
    ##       id     x        y
    ##    <int> <dbl>    <dbl>
    ##  1     1 0.592 -0.0784 
    ##  2     2 0.918 -2.53   
    ##  3     3 0.134  0.627  
    ##  4     4 0.810 -1.43   
    ##  5     6 0.676 -0.677  
    ##  6     7 0.403  0.709  
    ##  7    10 0.212  0.788  
    ##  8    12 0.518  0.00782
    ##  9    13 0.724 -0.683  
    ## 10    14 0.552 -0.123  
    ## # … with 69 more rows
…
